capstone/sweep300to900hz-93n.csv

TIME,CH1,Model,TBS2074B
-8,-0.0032,Firmware Version,v1.31.16
-7.992,-0.0038,,
-7.984,-0.0018,Point Format,Y
-7.976,0.005,Horizontal Units,S
-7.968,-0.002,Horizontal Scale,1
-7.96,0.001,Sample Interval,0.008
-7.952,0.002,Filter Frequency,200000000
-7.944,-0.0038,Record Length,2000
-7.936,-0.001,Gating,0.0% to 100.0%
-7.928,0.0034,Probe Attenuation,1
-7.92,-0.0018,Vertical Units,V
-7.912,0.0016,Vertical Offset,0
-7.904,0.002,Vertical Scale,0.005
-7.896,-0.0018,Label,
-7.888,-0.0038,,
-7.88,0.0028,,
-7.872,0.0012,,
-7.864,-0.0008,,
-7.856,0.006,,
-7.848,-0.0036,,
-7.84,0.0018,,
-7.832,-0.0006,,
-7.824,0.0002,,
-7.816,0.005,,
-7.808,0,,
-7.8,-0.0014,,
-7.792,-0.0008,,
-7.784,-0.002,,
-7.776,-0.0004,,
-7.768,-0.0034,,
-7.76,0.0044,,
-7.752,0.0022,,
-7.744,-0.0024,,
-7.736,0.0034,,
-7.728,0.0014,,
-7.72,-0.0024,,
-7.712,-0.0016,,
-7.704,-0.0008,,
-7.696,0.0026,,
-7.688,-0.0004,,
-7.68,0,,
-7.672,0.0044,,
-7.664,0.0006,,
-7.656,0.0018,,
-7.648,-0.001,,
-7.64,0.0012,,
-7.632,0.001,,
-7.624,-0.0008,,
-7.616,-0.0004,,
-7.608,-0.0004,,
-7.6,0.0016,,
-7.592,-0.0032,,
-7.584,0.0038,,
-7.576,-0.0034,,
-7.568,0.0002,,
-7.56,0.001,,
-7.552,0.0004,,
-7.544,0.0036,,
-7.536,-0.0044,,
-7.528,0.002,,
-7.52,-0.0014,,
-7.512,-0.0008,,
-7.504,-0.002,,
-7.496,0.0038,,
-7.488,0,,
-7.48,-0.0022,,
-7.472,0.0018,,
-7.464,-0.0014,,
-7.456,-0.002,,
-7.448,0.004,,
-7.44,-0.001,,
-7.432,-0.0006,,
-7.424,0.0008,,
-7.416,0.0038,,
-7.408,-0.0008,,
-7.4,-0.0024,,
-7.392,-0.0008,,
-7.384,0.0002,,
-7.376,0.0036,,
-7.368,0.0012,,
-7.36,0.0036,,
-7.352,-0.0012,,
-7.344,-0.0008,,
-7.336,0.0034,,
-7.328,0.0002,,
-7.32,0.0024,,
-7.312,-0.004,,
-7.304,0.0024,,
-7.296,0.0022,,
-7.288,-0.0014,,
-7.28,-0.0006,,
-7.272,-0.0042,,
-7.264,0.0004,,
-7.256,0.0016,,
-7.248,-0.0002,,
-7.24,0.0008,,
-7.232,0.002,,
-7.224,-0.0042,,
-7.216,0.0006,,
-7.208,0.0008,,
-7.2,-0.0018,,
-7.192,-0.0002,,
-7.184,0.004,,
-7.176,-0.0034,,
-7.168,-0.0006,,
-7.16,0.0018,,
-7.152,0,,
-7.144,-0.0012,,
-7.136,0.0016,,
-7.128,0.0018,,
-7.12,0.0002,,
-7.112,0.0024,,
-7.104,-0.0044,,
-7.096,0.0036,,
-7.088,-0.002,,
-7.08,-0.0016,,
-7.072,0.0016,,
-7.064,-0.0032,,
-7.056,-0.0024,,
-7.048,0.0046,,
-7.04,-0.0016,,
-7.032,0.0022,,
-7.024,0.0008,,
-7.016,-0.0008,,
-7.008,0.0038,,
-7,0.0006,,
-6.992,0.0014,,
-6.984,-0.0016,,
-6.976,0.0008,,
-6.968,0.004,,
-6.96,-0.0018,,
-6.952,0.004,,
-6.944,0.0018,,
-6.936,-0.002,,
-6.928,0.0012,,
-6.92,-0.0052,,
-6.912,0.0042,,
-6.904,0.002,,
-6.896,-0.0022,,
-6.888,0.0022,,
-6.88,-0.001,,
-6.872,-0.0034,,
-6.864,-0.0036,,
-6.856,-0.0032,,
-6.848,0.0016,,
-6.84,-0.0008,,
-6.832,0.004,,
-6.824,-0.0024,,
-6.816,0.0008,,
-6.808,-0.0014,,
-6.8,0.0022,,
-6.792,0.0012,,
-6.784,-0.0042,,
-6.776,0.0052,,
-6.768,-0.0036,,
-6.76,0.0012,,
-6.752,0.002,,
-6.744,0.0016,,
-6.736,-0.0042,,
-6.728,-0.0012,,
-6.72,0.0024,,
-6.712,-0.0004,,
-6.704,0.0034,,
-6.696,-0.001,,
-6.688,0.0006,,
-6.68,-0.0004,,
-6.672,0.0008,,
-6.664,-0.0002,,
-6.656,0.0052,,
-6.648,-0.0046,,
-6.64,0.0026,,
-6.632,0.0018,,
-6.624,0.0004,,
-6.616,-0.0008,,
-6.608,-0.0032,,
-6.6,-0.0012,,
-6.592,0.002,,
-6.584,0,,
-6.576,0.0034,,
-6.568,0.0044,,
-6.56,-0.0054,,
-6.552,-0.0012,,
-6.544,0.0024,,
-6.536,-0.0008,,
-6.528,-0.0028,,
-6.52,-0.003,,
-6.512,0.0036,,
-6.504,-0.0026,,
-6.496,0.0034,,
-6.488,0.0004,,
-6.48,-0.0006,,
-6.472,0.004,,
-6.464,0.0002,,
-6.456,-0.0002,,
-6.448,0,,
-6.44,-0.0032,,
-6.432,0.0028,,
-6.424,-0.0038,,
-6.416,0.0038,,
-6.408,0.001,,
-6.4,-0.002,,
-6.392,0.0032,,
-6.384,-0.004,,
-6.376,0.0058,,
-6.368,-0.0014,,
-6.36,0.0028,,
-6.352,-0.0028,,
-6.344,-0.0046,,
-6.336,0.0034,,
-6.328,0.001,,
-6.32,-0.0002,,
-6.312,0.0012,,
-6.304,0.0096,,
-6.296,0.002,,
-6.288,-0.002,,
-6.28,0.0008,,
-6.272,0.0018,,
-6.264,-0.006,,
-6.256,-0.0002,,
-6.248,-0.0024,,
-6.24,0.002,,
-6.232,0.0002,,
-6.224,0.0026,,
-6.216,0.0028,,
-6.208,-0.0004,,
-6.2,0,,
-6.192,0.0014,,
-6.184,0.0002,,
-6.176,0.0002,,
-6.168,-0.0028,,
-6.16,0.001,,
-6.152,-0.0012,,
-6.144,-0.0032,,
-6.136,0.0076,,
-6.128,-0.0048,,
-6.12,0.0018,,
-6.112,0.0004,,
-6.104,0.002,,
-6.096,0.002,,
-6.088,0.0036,,
-6.08,-0.0022,,
-6.072,0.0002,,
-6.064,0.001,,
-6.056,0.0038,,
-6.048,-0.0008,,
-6.04,-0.0032,,
-6.032,-0.0032,,
-6.024,0.0004,,
-6.016,-0.0014,,
-6.008,-0.0056,,
-6,-0.0052,,
-5.992,-0.0046,,
-5.984,-0.0034,,
-5.976,0.0002,,
-5.968,-0.0006,,
-5.96,-0.0002,,
-5.952,0.0002,,
-5.944,0.0032,,
-5.936,-0.0014,,
-5.928,-0.001,,
-5.92,0.0022,,
-5.912,-0.0026,,
-5.904,0.0054,,
-5.896,0.0004,,
-5.888,-0.0004,,
-5.88,0.001,,
-5.872,0.0008,,
-5.864,0.001,,
-5.856,0.0066,,
-5.848,-0.002,,
-5.84,0.001,,
-5.832,-0.0026,,
-5.824,-0.0034,,
-5.816,0.0062,,
-5.808,0.0038,,
-5.8,-0.0016,,
-5.792,0.0012,,
-5.784,-0.0028,,
-5.776,0.0034,,
-5.768,0.004,,
-5.76,0.0008,,
-5.752,-0.0018,,
-5.744,0.0004,,
-5.736,0.0006,,
-5.728,0.0006,,
-5.72,0.0038,,
-5.712,0.0028,,
-5.704,0.0014,,
-5.696,-0.0008,,
-5.688,-0.0024,,
-5.68,0.003,,
-5.672,-0.0032,,
-5.664,0.0028,,
-5.656,0.0028,,
-5.648,-0.001,,
-5.64,-0.0014,,
-5.632,-0.001,,
-5.624,-0.002,,
-5.616,0.004,,
-5.608,0.001,,
-5.6,0.0006,,
-5.592,0.0044,,
-5.584,-0.0016,,
-5.576,0.0008,,
-5.568,0.0012,,
-5.56,0,,
-5.552,0.0012,,
-5.544,0.0018,,
-5.536,0.0008,,
-5.528,0.0004,,
-5.52,0.0004,,
-5.512,-0.0038,,
-5.504,0.0014,,
-5.496,0.0012,,
-5.488,0.0004,,
-5.48,-0.0008,,
-5.472,0.0008,,
-5.464,-0.0058,,
-5.456,0.0064,,
-5.448,-0.0022,,
-5.44,0.0016,,
-5.432,0.0004,,
-5.424,-0.0034,,
-5.416,-0.0004,,
-5.408,0.0022,,
-5.4,-0.0018,,
-5.392,-0.001,,
-5.384,-0.0032,,
-5.376,0.0022,,
-5.368,0.004,,
-5.36,-0.0096,,
-5.352,-0.0024,,
-5.344,-0.002,,
-5.336,-0.0032,,
-5.328,0.0024,,
-5.32,-0.0022,,
-5.312,0.0028,,
-5.304,-0.0008,,
-5.296,0.001,,
-5.288,-0.0012,,
-5.28,-0.0038,,
-5.272,-0.0018,,
-5.264,0.0002,,
-5.256,0.0024,,
-5.248,-0.0016,,
-5.24,-0.0002,,
-5.232,-0.0014,,
-5.224,-0.0032,,
-5.216,0.0038,,
-5.208,-0.0004,,
-5.2,0.0004,,
-5.192,-0.0038,,
-5.184,0.0046,,
-5.176,-0.002,,
-5.168,0.0012,,
-5.16,0.0006,,
-5.152,0.0014,,
-5.144,-0.0022,,
-5.136,-0.0004,,
-5.128,0.0016,,
-5.12,-0.0002,,
-5.112,0.003,,
-5.104,0.0004,,
-5.096,-0.001,,
-5.088,0.0002,,
-5.08,0.0016,,
-5.072,-0.0016,,
-5.064,-0.0018,,
-5.056,-0.0022,,
-5.048,-0.0026,,
-5.04,-0.0016,,
-5.032,-0.0018,,
-5.024,-0.0002,,
-5.016,0.0038,,
-5.008,0.0038,,
-5,-0.0022,,
-4.992,-0.003,,
-4.984,-0.0008,,
-4.976,0.0034,,
-4.968,-0.0006,,
-4.96,-0.0056,,
-4.952,-0.0038,,
-4.944,0.0008,,
-4.936,0.0054,,
-4.928,0,,
-4.92,-0.0028,,
-4.912,-0.0014,,
-4.904,0.0012,,
-4.896,0.0056,,
-4.888,-0.001,,
-4.88,-0.0008,,
-4.872,0.0024,,
-4.864,0.0022,,
-4.856,0,,
-4.848,-0.0038,,
-4.84,0.0036,,
-4.832,-0.001,,
-4.824,0.0006,,
-4.816,-0.0022,,
-4.808,0.003,,
-4.8,-0.001,,
-4.792,0.0018,,
-4.784,0.0004,,
-4.776,0.0046,,
-4.768,0.0018,,
-4.76,-0.0014,,
-4.752,-0.0008,,
-4.744,-0.0018,,
-4.736,0.001,,
-4.728,0.0008,,
-4.72,-0.002,,
-4.712,0.0032,,
-4.704,0.0006,,
-4.696,0.0014,,
-4.688,-0.0018,,
-4.68,0.0048,,
-4.672,0.0044,,
-4.664,0.0016,,
-4.656,0.0016,,
-4.648,-0.0008,,
-4.64,0.0002,,
-4.632,0.0048,,
-4.624,-0.0004,,
-4.616,0.0026,,
-4.608,-0.002,,
-4.6,0.0024,,
-4.592,-0.0012,,
-4.584,-0.0054,,
-4.576,-0.001,,
-4.568,0.002,,
-4.56,0.0028,,
-4.552,-0.0016,,
-4.544,0.003,,
-4.536,-0.0024,,
-4.528,0.0022,,
-4.52,0.0028,,
-4.512,-0.0008,,
-4.504,-0.0006,,
-4.496,0.0066,,
-4.488,-0.002,,
-4.48,-0.0014,,
-4.472,-0.0016,,
-4.464,0,,
-4.456,0.0032,,
-4.448,0.0046,,
-4.44,-0.0012,,
-4.432,0.0002,,
-4.424,0.0006,,
-4.416,0.001,,
-4.408,0.0026,,
-4.4,0.0014,,
-4.392,0.0006,,
-4.384,0,,
-4.376,0.0004,,
-4.368,0.0052,,
-4.36,0.0056,,
-4.352,-0.003,,
-4.344,-0.0018,,
-4.336,0.001,,
-4.328,0.0034,,
-4.32,-0.0028,,
-4.312,0.003,,
-4.304,-0.0024,,
-4.296,0.0034,,
-4.288,0.0018,,
-4.28,-0.003,,
-4.272,-0.003,,
-4.264,-0.001,,
-4.256,0.0032,,
-4.248,0.0006,,
-4.24,-0.0032,,
-4.232,0.0034,,
-4.224,-0.0022,,
-4.216,0.003,,
-4.208,0.0004,,
-4.2,0.005,,
-4.192,-0.0024,,
-4.184,-0.0004,,
-4.176,0.0038,,
-4.168,0.0028,,
-4.16,0.0028,,
-4.152,-0.0028,,
-4.144,-0.002,,
-4.136,0.001,,
-4.128,-0.0008,,
-4.12,0.0018,,
-4.112,-0.0044,,
-4.104,0,,
-4.096,0.0024,,
-4.088,0.0026,,
-4.08,-0.0034,,
-4.072,-0.0018,,
-4.064,0.0008,,
-4.056,0.0024,,
-4.048,-0.0018,,
-4.04,0.0008,,
-4.032,0.0028,,
-4.024,-0.0024,,
-4.016,-0.0026,,
-4.008,-0.0014,,
-4,0.002,,
-3.992,0.002,,
-3.984,0.001,,
-3.976,0.0034,,
-3.968,0.0036,,
-3.96,-0.0022,,
-3.952,0.0008,,
-3.944,-0.001,,
-3.936,0.002,,
-3.928,0.001,,
-3.92,-0.0028,,
-3.912,-0.0018,,
-3.904,-0.0012,,
-3.896,-0.0002,,
-3.888,-0.0008,,
-3.88,0.0012,,
-3.872,-0.004,,
-3.864,-0.0032,,
-3.856,-0.0004,,
-3.848,0.001,,
-3.84,0.0014,,
-3.832,0.0036,,
-3.824,0.0042,,
-3.816,0.0026,,
-3.808,-0.002,,
-3.8,0.0016,,
-3.792,-0.001,,
-3.784,0.0048,,
-3.776,-0.0032,,
-3.768,0.0026,,
-3.76,-0.0006,,
-3.752,-0.0012,,
-3.744,-0.0024,,
-3.736,-0.0012,,
-3.728,0.003,,
-3.72,0.0016,,
-3.712,0.0012,,
-3.704,-0.0008,,
-3.696,-0.0026,,
-3.688,0.004,,
-3.68,-0.0028,,
-3.672,0.0012,,
-3.664,0.0008,,
-3.656,0.0006,,
-3.648,-0.0046,,
-3.64,0.003,,
-3.632,0.003,,
-3.624,-0.0018,,
-3.616,0.0014,,
-3.608,0.0048,,
-3.6,0.0066,,
-3.592,0.0038,,
-3.584,0.0026,,
-3.576,-0.001,,
-3.568,-0.0002,,
-3.56,-0.0024,,
-3.552,-0.005,,
-3.544,0.0018,,
-3.536,0.0012,,
-3.528,0.0022,,
-3.52,-0.0002,,
-3.512,0.0042,,
-3.504,-0.004,,
-3.496,0.0002,,
-3.488,0.0024,,
-3.48,0.002,,
-3.472,0.0014,,
-3.464,-0.0008,,
-3.456,0.0044,,
-3.448,0.0004,,
-3.44,-0.0014,,
-3.432,0.001,,
-3.424,0.0038,,
-3.416,0.0004,,
-3.408,-0.004,,
-3.4,0.0004,,
-3.392,-0.004,,
-3.384,-0.0016,,
-3.376,-0.0058,,
-3.368,-0.0046,,
-3.36,0.0004,,
-3.352,-0.001,,
-3.344,-0.0044,,
-3.336,-0.0058,,
-3.328,-0.0038,,
-3.32,0.0028,,
-3.312,0.0006,,
-3.304,-0.0014,,
-3.296,-0.0016,,
-3.288,0.0038,,
-3.28,-0.004,,
-3.272,0.0028,,
-3.264,-0.0002,,
-3.256,-0.0012,,
-3.248,0.001,,
-3.24,-0.005,,
-3.232,0.0018,,
-3.224,0.0032,,
-3.216,0.0032,,
-3.208,0.002,,
-3.2,0.0018,,
-3.192,0.0044,,
-3.184,-0.0018,,
-3.176,0.0014,,
-3.168,0.0026,,
-3.16,-0.0006,,
-3.152,0.0038,,
-3.144,0.007,,
-3.136,-0.002,,
-3.128,0.0038,,
-3.12,-0.0002,,
-3.112,-0.0002,,
-3.104,0.0038,,
-3.096,0.003,,
-3.088,0.0028,,
-3.08,-0.0024,,
-3.072,-0.0016,,
-3.064,-0.0006,,
-3.056,0.0046,,
-3.048,-0.0022,,
-3.04,0.0028,,
-3.032,-0.0004,,
-3.024,0.0002,,
-3.016,0.0064,,
-3.008,0.005,,
-3,0.0058,,
-2.992,0.003,,
-2.984,-0.0002,,
-2.976,0.0084,,
-2.968,0.0012,,
-2.96,0.0062,,
-2.952,0.0042,,
-2.944,0.0042,,
-2.936,0.002,,
-2.928,0.0014,,
-2.92,-0.001,,
-2.912,0.0028,,
-2.904,-0.0048,,
-2.896,0.0058,,
-2.888,0.0002,,
-2.88,-0.0008,,
-2.872,-0.0032,,
-2.864,-0.004,,
-2.856,0.006,,
-2.848,0.0006,,
-2.84,0.0018,,
-2.832,0.0006,,
-2.824,-0.0002,,
-2.816,0.0084,,
-2.808,0.002,,
-2.8,-0.0004,,
-2.792,-0.0014,,
-2.784,0.0062,,
-2.776,0.0006,,
-2.768,-0.0022,,
-2.76,0.0022,,
-2.752,-0.0004,,
-2.744,0.0038,,
-2.736,-0.0006,,
-2.728,-0.0026,,
-2.72,-0.0004,,
-2.712,0.0012,,
-2.704,0,,
-2.696,-0.001,,
-2.688,-0.003,,
-2.68,0.0016,,
-2.672,0.0014,,
-2.664,0.002,,
-2.656,0.005,,
-2.648,0.0042,,
-2.64,0.0004,,
-2.632,-0.001,,
-2.624,0.0008,,
-2.616,0.0072,,
-2.608,-0.0044,,
-2.6,0.002,,
-2.592,0.0016,,
-2.584,0.0014,,
-2.576,0.0048,,
-2.568,0.0014,,
-2.56,0.0022,,
-2.552,-0.0018,,
-2.544,-0.0024,,
-2.536,0.005,,
-2.528,-0.0034,,
-2.52,0.0026,,
-2.512,0.0006,,
-2.504,-0.0046,,
-2.496,-0.0012,,
-2.488,-0.0014,,
-2.48,0.0012,,
-2.472,-0.001,,
-2.464,-0.002,,
-2.456,0.0028,,
-2.448,0.0028,,
-2.44,0.003,,
-2.432,0.0038,,
-2.424,0.0016,,
-2.416,0.0016,,
-2.408,0.0006,,
-2.4,0.004,,
-2.392,0.0052,,
-2.384,0.0036,,
-2.376,0.0056,,
-2.368,-0.0012,,
-2.36,0.0012,,
-2.352,0.0046,,
-2.344,-0.0008,,
-2.336,-0.0006,,
-2.328,0.0012,,
-2.32,0.0008,,
-2.312,0.0018,,
-2.304,0.0002,,
-2.296,0.0076,,
-2.288,-0.0006,,
-2.28,-0.001,,
-2.272,-0.0004,,
-2.264,0.003,,
-2.256,-0.0002,,
-2.248,-0.0006,,
-2.24,0.0018,,
-2.232,0.001,,
-2.224,-0.0006,,
-2.216,0.004,,
-2.208,-0.0052,,
-2.2,-0.0038,,
-2.192,0.0002,,
-2.184,0.0002,,
-2.176,0.0046,,
-2.168,0.0012,,
-2.16,0.0038,,
-2.152,-0.0028,,
-2.144,0.0016,,
-2.136,0.0022,,
-2.128,-0.0006,,
-2.12,-0.0024,,
-2.112,0.0004,,
-2.104,0.0014,,
-2.096,0.0022,,
-2.088,0.0008,,
-2.08,-0.0002,,
-2.072,-0.0034,,
-2.064,0,,
-2.056,0.0018,,
-2.048,-0.0014,,
-2.04,0.0012,,
-2.032,0.0018,,
-2.024,-0.0042,,
-2.016,0.0022,,
-2.008,0.0018,,
-2,0.0014,,
-1.992,-0.0006,,
-1.984,-0.0036,,
-1.976,0.0074,,
-1.968,-0.001,,
-1.96,-0.0016,,
-1.952,0.0014,,
-1.944,0.002,,
-1.936,0.0014,,
-1.928,0.0002,,
-1.92,0.0022,,
-1.912,0.0016,,
-1.904,0.0008,,
-1.896,0.0024,,
-1.888,0.0022,,
-1.88,-0.0026,,
-1.872,0.0018,,
-1.864,0.0028,,
-1.856,0.0044,,
-1.848,0.0052,,
-1.84,-0.0022,,
-1.832,0.0034,,
-1.824,0.0036,,
-1.816,0.0054,,
-1.808,0.0002,,
-1.8,0.002,,
-1.792,0.0042,,
-1.784,-0.003,,
-1.776,0.0044,,
-1.768,-0.001,,
-1.76,0.002,,
-1.752,-0.0008,,
-1.744,0.0022,,
-1.736,0.001,,
-1.728,-0.0014,,
-1.72,-0.0008,,
-1.712,0.0036,,
-1.704,0.0004,,
-1.696,0.0014,,
-1.688,-0.0024,,
-1.68,0.0018,,
-1.672,-0.002,,
-1.664,0.0046,,
-1.656,-0.0024,,
-1.648,0.0032,,
-1.64,-0.0006,,
-1.632,0.0016,,
-1.624,-0.0002,,
-1.616,-0.0006,,
-1.608,0.0024,,
-1.6,0.0028,,
-1.592,0.0026,,
-1.584,-0.0012,,
-1.576,0.0064,,
-1.568,-0.0028,,
-1.56,0,,
-1.552,-0.0008,,
-1.544,-0.001,,
-1.536,0.0042,,
-1.528,0.0038,,
-1.52,0,,
-1.512,0.0008,,
-1.504,0.0042,,
-1.496,0.0004,,
-1.488,-0.0032,,
-1.48,-0.0022,,
-1.472,0.0002,,
-1.464,-0.0022,,
-1.456,-0.0038,,
-1.448,-0.001,,
-1.44,-0.0026,,
-1.432,-0.004,,
-1.424,-0.0016,,
-1.416,0.0066,,
-1.408,0.0044,,
-1.4,0.003,,
-1.392,-0.0036,,
-1.384,0.0028,,
-1.376,0.0016,,
-1.368,0.0008,,
-1.36,0.0008,,
-1.352,-0.0036,,
-1.344,-0.0036,,
-1.336,0.0064,,
-1.328,-0.0008,,
-1.32,-0.0024,,
-1.312,-0.0008,,
-1.304,0.0032,,
-1.296,0.002,,
-1.288,-0.0022,,
-1.28,-0.0016,,
-1.272,-0.002,,
-1.264,-0.003,,
-1.256,-0.0014,,
-1.248,-0.001,,
-1.24,-0.0028,,
-1.232,-0.0006,,
-1.224,0.0004,,
-1.216,0.0044,,
-1.208,0.0048,,
-1.2,0.0034,,
-1.192,-0.001,,
-1.184,-0.0018,,
-1.176,0.0034,,
-1.168,-0.0014,,
-1.16,-0.0012,,
-1.152,0.0044,,
-1.144,0.0032,,
-1.136,0.0022,,
-1.128,-0.0012,,
-1.12,-0.0042,,
-1.112,0.0034,,
-1.104,-0.003,,
-1.096,0.004,,
-1.088,0.0002,,
-1.08,-0.0038,,
-1.072,0.004,,
-1.064,-0.0004,,
-1.056,0.0014,,
-1.048,-0.0018,,
-1.04,0.0016,,
-1.032,-0.0042,,
-1.024,0.0004,,
-1.016,0.0036,,
-1.008,-0.0014,,
-1,0.0004,,
-0.992,-0.0034,,
-0.984,0,,
-0.976,0.0062,,
-0.968,0.0002,,
-0.96,-0.0016,,
-0.952,0.0012,,
-0.944,0.0032,,
-0.936,0.0026,,
-0.928,0.0028,,
-0.92,-0.0014,,
-0.912,0.0006,,
-0.904,0.0008,,
-0.896,-0.0018,,
-0.888,0.0014,,
-0.88,0.001,,
-0.872,0.0018,,
-0.864,0.0014,,
-0.856,0.002,,
-0.848,0.0046,,
-0.84,-0.0036,,
-0.832,0.0002,,
-0.824,0.0014,,
-0.816,0.004,,
-0.808,0.003,,
-0.8,0.0006,,
-0.792,0.0008,,
-0.784,0.001,,
-0.776,0.0028,,
-0.768,0.0012,,
-0.76,0.0024,,
-0.752,0.0004,,
-0.744,-0.0044,,
-0.736,0.0046,,
-0.728,-0.0008,,
-0.72,-0.0012,,
-0.712,0.002,,
-0.704,-0.001,,
-0.696,0.0044,,
-0.688,-0.0006,,
-0.68,0.0004,,
-0.672,0.0012,,
-0.664,-0.0042,,
-0.656,-0.0016,,
-0.648,0.0004,,
-0.64,0.0012,,
-0.632,0.0034,,
-0.624,0.0034,,
-0.616,-0.001,,
-0.608,-0.0008,,
-0.6,0.0006,,
-0.592,0.004,,
-0.584,0.0014,,
-0.576,-0.002,,
-0.568,0.0024,,
-0.56,0.0008,,
-0.552,0.0002,,
-0.544,0.0006,,
-0.536,0.0044,,
-0.528,-0.0006,,
-0.52,0.0002,,
-0.512,0.0022,,
-0.504,0.0008,,
-0.496,0.0044,,
-0.488,0.0036,,
-0.48,-0.0004,,
-0.472,0.005,,
-0.464,-0.0016,,
-0.456,-0.0016,,
-0.448,-0.0026,,
-0.44,0.0028,,
-0.432,0.0036,,
-0.424,-0.0006,,
-0.416,0.0014,,
-0.408,0.0008,,
-0.4,0,,
-0.392,0.0066,,
-0.384,0.0016,,
-0.376,-0.0016,,
-0.368,0.0014,,
-0.36,-0.0048,,
-0.352,0.0066,,
-0.344,-0.0018,,
-0.336,0.0024,,
-0.328,-0.0008,,
-0.32,-0.0028,,
-0.312,0.0008,,
-0.304,-0.0004,,
-0.296,0.0014,,
-0.288,0.0004,,
-0.28,-0.003,,
-0.272,0.0014,,
-0.264,0.0014,,
-0.256,0.0014,,
-0.248,-0.0034,,
-0.24,0.0034,,
-0.232,-0.0008,,
-0.224,0.0034,,
-0.216,-0.0016,,
-0.208,-0.0008,,
-0.2,-0.0004,,
-0.192,0.003,,
-0.184,-0.004,,
-0.176,-0.0034,,
-0.168,-0.002,,
-0.16,0.0014,,
-0.152,0.0024,,
-0.144,-0.0002,,
-0.136,0.003,,
-0.128,-0.002,,
-0.12,-0.0008,,
-0.112,0.0044,,
-0.104,0.0014,,
-0.096,0.0024,,
-0.088,-0.0032,,
-0.08,0.002,,
-0.072,0.0032,,
-0.064,0,,
-0.056,-0.0052,,
-0.048,0.0022,,
-0.04,-0.0014,,
-0.032,0.0012,,
-0.024,-0.0018,,
-0.016,-0.0006,,
-0.008,0.0046,,
7.05E-15,-0.0034,,
0.008,0.0048,,
0.016,0.0002,,
0.024,0.0022,,
0.032,-0.0052,,
0.04,0.0032,,
0.048,0.0046,,
0.056,-0.0018,,
0.064,-0.001,,
0.072,-0.0014,,
0.08,0.0016,,
0.088,0.0006,,
0.096,-0.0028,,
0.104,0.001,,
0.112,0.0006,,
0.12,0.001,,
0.128,0.0068,,
0.136,-0.003,,
0.144,0.0014,,
0.152,-0.0008,,
0.16,-0.0002,,
0.168,-0.0004,,
0.176,-0.004,,
0.184,-0.0012,,
0.192,0.002,,
0.2,0.002,,
0.208,0.003,,
0.216,-0.0028,,
0.224,-0.0018,,
0.232,0.0026,,
0.24,-0.0022,,
0.248,0.0032,,
0.256,0.001,,
0.264,0.0018,,
0.272,0.0044,,
0.28,-0.003,,
0.288,0.0048,,
0.296,0.0006,,
0.304,-0.0028,,
0.312,0.002,,
0.32,0.0024,,
0.328,0.0052,,
0.336,-0.0016,,
0.344,0.0012,,
0.352,-0.0044,,
0.36,-0.0046,,
0.368,0.0034,,
0.376,-0.001,,
0.384,0.0004,,
0.392,-0.0014,,
0.4,0.0046,,
0.408,-0.0006,,
0.416,0.0012,,
0.424,0.002,,
0.432,-0.0012,,
0.44,-0.0036,,
0.448,0.0062,,
0.456,-0.0024,,
0.464,-0.002,,
0.472,-0.0014,,
0.48,-0.0032,,
0.488,0.006,,
0.496,-0.0036,,
0.504,0.0024,,
0.512,-0.0004,,
0.52,-0.0002,,
0.528,0.0038,,
0.536,0.0014,,
0.544,-0.0018,,
0.552,-0.0034,,
0.56,0.002,,
0.568,0.0044,,
0.576,0.0036,,
0.584,0.0026,,
0.592,0.0016,,
0.6,-0.001,,
0.608,0.001,,
0.616,0.0024,,
0.624,0.0026,,
0.632,-0.0048,,
0.64,0.0032,,
0.648,0.005,,
0.656,0.0002,,
0.664,-0.0008,,
0.672,0.0048,,
0.68,-0.0032,,
0.688,0.007,,
0.696,0,,
0.704,-0.0034,,
0.712,0.003,,
0.72,-0.0044,,
0.728,0.0022,,
0.736,0.0032,,
0.744,0.0004,,
0.752,-0.0018,,
0.76,-0.0044,,
0.768,0.0034,,
0.776,0.0026,,
0.784,-0.0018,,
0.792,-0.0014,,
0.8,0.0036,,
0.808,-0.0014,,
0.816,0.0026,,
0.824,-0.0008,,
0.832,0.001,,
0.84,-0.0048,,
0.848,-0.0018,,
0.856,0.0016,,
0.864,-0.002,,
0.872,-0.0016,,
0.88,0.0012,,
0.888,-0.0004,,
0.896,0.0034,,
0.904,-0.0028,,
0.912,0.0018,,
0.92,0.001,,
0.928,0.0072,,
0.936,0.0008,,
0.944,0.0022,,
0.952,0.0014,,
0.96,0.0008,,
0.968,0.005,,
0.976,-0.0032,,
0.984,0.0038,,
0.992,-0.0022,,
1,0.002,,
1.008,0.0048,,
1.016,-0.001,,
1.024,-0.0034,,
1.032,-0.0042,,
1.04,0.0002,,
1.048,0.0014,,
1.056,0.0006,,
1.064,-0.002,,
1.072,-0.0028,,
1.08,-0.0006,,
1.088,0.0048,,
1.096,0.0004,,
1.104,-0.0012,,
1.112,0.0012,,
1.12,0.0038,,
1.128,-0.0008,,
1.136,0.0012,,
1.144,0.0022,,
1.152,0.001,,
1.16,0.0032,,
1.168,-0.0018,,
1.176,0.001,,
1.184,0.0018,,
1.192,-0.001,,
1.2,-0.0014,,
1.208,0.008,,
1.216,0.0018,,
1.224,-0.0002,,
1.232,0.0006,,
1.24,-0.0018,,
1.248,0.004,,
1.256,-0.0034,,
1.264,0.0034,,
1.272,-0.0026,,
1.28,-0.0002,,
1.288,0.002,,
1.296,0.0038,,
1.304,0.0004,,
1.312,-0.0026,,
1.32,-0.0008,,
1.328,0.0036,,
1.336,0.0018,,
1.344,-0.0012,,
1.352,-0.0018,,
1.36,0.0012,,
1.368,0.0014,,
1.376,0.0002,,
1.384,0.0002,,
1.392,0.0044,,
1.4,-0.003,,
1.408,0.0032,,
1.416,0.002,,
1.424,0.0002,,
1.432,0.0034,,
1.44,-0.0032,,
1.448,-0.0004,,
1.456,-0.0052,,
1.464,-0.003,,
1.472,-0.0042,,
1.48,0.0004,,
1.488,-0.0006,,
1.496,-0.0032,,
1.504,-0.0028,,
1.512,-0.0018,,
1.52,-0.0038,,
1.528,-0.0024,,
1.536,-0.0022,,
1.544,-0.0056,,
1.552,-0.003,,
1.56,-0.002,,
1.568,-0.0038,,
1.576,0.0016,,
1.584,-0.005,,
1.592,-0.0046,,
1.6,-0.005,,
1.608,-0.004,,
1.616,-0.005,,
1.624,0.0002,,
1.632,-0.002,,
1.64,-0.0052,,
1.648,-0.0014,,
1.656,-0.0036,,
1.664,-0.0018,,
1.672,0.0002,,
1.68,-0.0054,,
1.688,-0.0016,,
1.696,-0.0028,,
1.704,-0.0068,,
1.712,0.0014,,
1.72,-0.0044,,
1.728,-0.0052,,
1.736,-0.002,,
1.744,-0.0034,,
1.752,0.0006,,
1.76,-0.0072,,
1.768,-0.0006,,
1.776,-0.005,,
1.784,-0.0014,,
1.792,-0.0066,,
1.8,0.0016,,
1.808,-0.0024,,
1.816,-0.0038,,
1.824,-0.0012,,
1.832,0.0012,,
1.84,-0.008,,
1.848,0,,
1.856,-0.0054,,
1.864,-0.0028,,
1.872,-0.0032,,
1.88,-0.005,,
1.888,0.0002,,
1.896,-0.0046,,
1.904,-0.0008,,
1.912,-0.0044,,
1.92,-0.004,,
1.928,0.003,,
1.936,-0.0028,,
1.944,-0.0062,,
1.952,-0.0016,,
1.96,-0.001,,
1.968,-0.0074,,
1.976,-0.0072,,
1.984,-0.007,,
1.992,-0.0044,,
2,-0.0008,,
2.008,-0.0042,,
2.016,0.0006,,
2.024,-0.0062,,
2.032,-0.0024,,
2.04,-0.0024,,
